{
  "Structures": 
  [
    {	"Id" : 0,
		"Name": "Common 1",
		"Type": 0,
		"ImageName" : "Common1",
		"PopupColor" : "00c6d2"
    },
    {
		"Id" : 1,
		"Name": "Common 2",
		"Type": 0,
		"ImageName" : "Common2",
		"PopupColor" : "00c6d2"
	},
	{
		"Id" : 2,
		"Name": "Common 3",
		"Type": 0,
		"ImageName" : "Common3",
		"PopupColor" : "00c6d2"
	},
	{
		"Id" : 3,
		"Name": "Common 4",
		"Type": 0,
		"ImageName" : "Common4",
		"PopupColor" : "00c6d2"
	},
	{
		"Id" : 4,
		"Name": "Common 5",
		"Type": 0,
		"ImageName" : "Common5",
		"PopupColor" : "00c6d2"
	},
	{
		"Id" : 5,
		"Name": "Common 6",
		"Type": 0,
		"ImageName" : "Common6",
		"PopupColor" : "00c6d2"
	},
	{
		"Id" : 6,
		"Name": "Common 7",
		"Type": 0,
		"ImageName" : "Common7",
		"PopupColor" : "00c6d2"
	},
	{
		"Id" : 7,
		"Name": "Common 8",
		"Type": 0,
		"ImageName" : "Common8",
		"PopupColor" : "00c6d2"
	},
	{
		"Id" : 8,
		"Name": "Common 9",
		"Type": 0,
		"ImageName" : "Common9",
		"PopupColor" : "00c6d2"
	},
	{
		"Id" : 9,
		"Name": "Common 10",
		"Type": 0,
		"ImageName" : "Common10",
		"PopupColor" : "00c6d2"
	},
	{
		"Id" : 10,
		"Name": "Common 11",
		"Type": 0,
		"ImageName" : "Common11",
		"PopupColor" : "00c6d2"
	},
	{
		"Id" : 11,
		"Name": "Common 12",
		"Type": 0,
		"ImageName" : "Common12",
		"PopupColor" : "00c6d2"
	},
	{
		"Id" : 12,
		"Name": "Common 13",
		"Type": 0,
		"ImageName" : "Common13",
		"PopupColor" : "00c6d2"
	},
	{
		"Id" : 13,
		"Name": "Common 14",
		"Type": 0,
		"ImageName" : "Common14",
		"PopupColor" : "00c6d2"
	},
	{
		"Id" : 14,
		"Name": "Common 15",
		"Type": 0,
		"ImageName" : "Common15",
		"PopupColor" : "00c6d2"
	},
    {
		"Id" : 15,
		"Name": "Unique 1",
		"Type": 1,
		"ImageName" : "Unique1",
		"PopupColor" : "fff9ba"
	},
    {
		"Id" : 16,
		"Name": "Unique 2",
		"Type": 1,
		"ImageName" : "Unique2",
		"PopupColor" : "9dbe59"
	},
    {
		"Id" : 17,
		"Name": "Unique 3",
		"Type": 1,
		"ImageName" : "Unique3",
		"PopupColor" : "eaae46"
	},
    {
		"Id" : 18,
		"Name": "Unique 4",
		"Type": 1,
		"ImageName" : "Unique4",
		"PopupColor" : "5884b3"
	},
    {
		"Id" : 19,
		"Name": "Unique 5",
		"Type": 1,
		"ImageName" : "Unique5",
		"PopupColor" : "cc6686"
	}
  ]
}